{
  "$schema": "http://json.schemastore.org/template",
  "author": "Michael Coombes",
  "classifications": ["Web", "Vue", "MVC"],
  "identity": "MikeCoombes.Vue.MVC",
  "name": "Vue CLI MVC Template",
  "shortName": "vuecli"
}